European Union COVID-19 Report
…
## Joining, by = c("Province/State", "Country/Region", "date")

global <- global %>% filter(cases > 0)

global_recovered <- global_recovered %>% pivot_longer(cols=-c(`Province/State`, `Country/Region`, Lat, Long), names_to = "date", values_to = "recovered") %>% select(-c(Lat, Long))
global_recovered <- global_recovered %>% rename(Country_Region = `Country/Region`,Province_State = `Province/State`) %>% mutate(date = mdy(date))
global <- global %>% full_join(global_recovered)

## Joining, by = c("Province_State", "Country_Region", "date")

global <- global %>% filter(cases > 0)
global

## # A tibble: 123,156 x 6
##    Province_State Country_Region date       cases deaths recovered
##    <chr>          <chr>          <date>     <dbl>  <dbl>     <dbl>
##  1 <NA>           Afghanistan    2020-02-24     1      0         0
##  2 <NA>           Afghanistan    2020-02-25     1      0         0
##  3 <NA>           Afghanistan    2020-02-26     1      0         0
##  4 <NA>           Afghanistan    2020-02-27     1      0         0
##  5 <NA>           Afghanistan    2020-02-28     1      0         0
##  6 <NA>           Afghanistan    2020-02-29     1      0         0
##  7 <NA>           Afghanistan    2020-03-01     1      0         0
##  8 <NA>           Afghanistan    2020-03-02     1      0         0
##  9 <NA>           Afghanistan    2020-03-03     2      0         0
## 10 <NA>           Afghanistan    2020-03-04     4      0         0
## # ... with 123,146 more rows
…
eu[is.na(eu$date_end), "date_end"] = as.Date(today())
                                                          #%>% merge(x=global, y=eu_resp, by.x="Country_Region", by.y="Country")
eu_covid <- global[global$Country_Region %in% eu$Country,]

eu_covid <- eu_covid %>% select(-c(iso2, iso3, code3, Admin2))

All of Europe

I first started by analyzing and visualizing the data for all the countries. This is a graph with the cumulative of: cases, deaths and recoveries.

EU_cntries_ttl <- eu_covid %>% group_by(date) %>% summarize(recovered = sum(recovered), cases=sum(cases), deaths=sum(deaths), Population=sum(Population)) %>% select(date, cases, deaths, recovered, Population) %>% ungroup()
EU_cntries_ttl

## # A tibble: 496 x 5
##    date       cases deaths recovered Population
##    <date>     <dbl>  <dbl>     <dbl>      <dbl>
##  1 2020-01-24     2      0         0   65273512
##  2 2020-01-25     3      0         0   65273512
##  3 2020-01-26     3      0         0   65273512
##  4 2020-01-27     3      0         0   65273512
##  5 2020-01-28     4      0         0   65273512
##  6 2020-01-29     5      0         0   65273512
##  7 2020-01-30     5      0         0   65273512
##  8 2020-01-31     9      0         0  193621344
##  9 2020-02-01    11      0         0  240376127
## 10 2020-02-02    11      0         0  240376127
## # ... with 486 more rows
…
